{
    "key": "polly",
    "name": "Polly",
    "description": "Interactive polling within your HipChat rooms",
    "vendor": {
        "name": "Charlie Awyeah",
        "url": "https://www.hipchat.com"
    },
    "links": {
        "self": "{{localBaseUrl}}/atlassian-connect.json",
        "homepage": "{{localBaseUrl}}/atlassian-connect.json"
    },
    "capabilities": {
        "hipchatApiConsumer": {
            "scopes": [
                "send_notification"
            ]
        },
        "installable": {
            "callbackUrl": "{{localBaseUrl}}/installable"
        },
        "webhook": {
            "url": "{{localBaseUrl}}/webhook",
            "pattern": "^/poll",
            "event": "room_message",
            "name": "Polly"
        }
    }
}